verilog xil_defaultlib --include "../../../ipstatic" \
"../../../../aurora_rx.srcs/sources_1/ip/clk_wiz_5/clk_wiz_5_clk_wiz.v" \
"../../../../aurora_rx.srcs/sources_1/ip/clk_wiz_5/clk_wiz_5.v" \

verilog xil_defaultlib "glbl.v"

nosort
