xpm_cdc.sv,systemverilog,xil_defaultlib,../../../../../../../../../../../../usr/local/xilinx/Vivado/2017.4/data/ip/xpm/xpm_cdc/hdl/xpm_cdc.sv,incdir="../../../../aurora_rx.srcs/sources_1/ip/ila_1/hdl/verilog"
xpm_memory.sv,systemverilog,xil_defaultlib,../../../../../../../../../../../../usr/local/xilinx/Vivado/2017.4/data/ip/xpm/xpm_memory/hdl/xpm_memory.sv,incdir="../../../../aurora_rx.srcs/sources_1/ip/ila_1/hdl/verilog"
xpm_VCOMP.vhd,vhdl,xpm,../../../../../../../../../../../../usr/local/xilinx/Vivado/2017.4/data/ip/xpm/xpm_VCOMP.vhd,incdir="../../../../aurora_rx.srcs/sources_1/ip/ila_1/hdl/verilog"
ila_1.v,verilog,xil_defaultlib,../../../../aurora_rx.srcs/sources_1/ip/ila_1/sim/ila_1.v,incdir="../../../../aurora_rx.srcs/sources_1/ip/ila_1/hdl/verilog"
glbl.v,Verilog,xil_defaultlib,glbl.v
